{
    "show_video": true,
    "use_dropbox": false,
    "dropbox_key": "YOUR_DROPBOX_KEY",
    "dropbox_secret": "YOUR_DROPBOX_SECRET",
    "dropbox_base_path": "YOUR_DROPBOX_PATH",
    "min_upload_seconds": 3.0,
    "min_motion_frames": 8,
    "camera_warmup_time": 2.5,
    "delta_thresh": 5,
    "resolution": [640, 480],
    "fps": 64,
    "min_area": 30000
}
